benchmark,task1_CPI,task2_CPI,task3_CPI_2,task3_CPI_4,task3_CPI_8,task4_CPI_1,task4_CPI_2,task4_CPI_4,task4_CPI_8
fpppp,4.1873,1.8660,1.7824,1.7738,1.7685,1.3468,0.9648,0.9101,0.9040
go,3.1468,2.0405,1.7513,1.6299,1.5766,1.9008,1.5685,1.4311,1.3711
gcc,3.5708,2.1665,1.8477,1.7308,1.6757,1.9405,1.5546,1.4200,1.3714
vpr,3.4773,2.0520,1.7379,1.5801,1.5408,1.8436,1.5006,1.3204,1.2708

