icache1_miss_rate,2.5605
icache2_miss_rate,2.9877
dcache_ld_miss_rate,0.5623
dcache_st_miss_rate,0.2991
dcache_wb_ratio,0.6834
dcachev_direct_ld_miss_rate,0.9875
dcachev_direct_st_miss_rate,0.3887
dcachev_2way_ld_miss_rate,0.6084
dcachev_2way_st_miss_rate,0.3086
dcachev_4way_ld_miss_rate,0.5079
dcachev_4way_st_miss_rate,0.2364
prefetch_cache_miss_rate,1.6223
prefetch_success_rate,93.4123
